4.976958525345623, 3.8781706230879465
9.400921658986192, 3.5047051078495883
12.718894009216598, 3.266622778143514
14.930875576036868, 3.2647639701041697
16.95852534562212, 3.464740735003673
19.723502304147445, 3.8657785694923135
21.935483870967772, 4.267281105990776
24.700460829493096, 4.5002517135886535
26.72811059907835, 4.464934360841113
29.67741935483869, 4.092708050962322
32.81105990783411, 3.7875537311698864
34.65437788018434, 3.920458505983035
36.682027649769594, 4.254889052395143
38.70967741935485, 4.824613716454316
40.36866359447001, 5.428261627231528
42.02764976958525, 6.166363319521345
43.317972350230406, 6.77032103163846
44.792626728110605, 7.643031406110822
45.89861751152071, 8.415211245788626
46.63594470046084, 9.053247105293721
47.18894009216589, 9.792278201603214
48.11059907834098, 10.732680168841721
48.66359447004609, 11.505324710529365
49.400921658986164, 12.176974015412604
49.769585253456256, 12.78170623087944
50.32258064516125, 13.419896991054475
51.05990783410138, 14.226000077450323
51.79723502304145, 14.931262827711716
52.7188940092166, 15.66998412268132
53.64055299539169, 16.274251636138313
54.74654377880185, 16.74391046741276
55.85253456221196, 16.81020795414939
57.32718894009216, 16.540061185764614
58.61751152073734, 15.967548309646428
59.90783410138246, 15.126127870503026
61.013824884792626, 14.352089222785875
61.935483870967715, 13.746272702629426
63.04147465437788, 12.938620609534123
64.33179723502306, 12.029973279634426
65.8064516129032, 11.222011385199227
67.09677419354838, 10.41420439143398
68.20276497695855, 9.572938852960526
69.67741935483869, 8.697750067769029
71.15207373271889, 7.755334391821229
72.62672811059903, 6.779305270495286
73.7327188940092, 6.00526662277813
74.83870967741936, 5.231227975060982
