83.35937499999999, 140.11976047904193
79.14062499999999, 140.11976047904193
79.14062499999999, 118.56287425149702
73.74999999999999, 118.56287425149702
73.74999999999999, 138.68263473053895
67.65624999999999, 138.68263473053895
67.65624999999999, 152.09580838323353
61.32812499999997, 152.09580838323353
61.32812499999997, 149.22155688622757
56.17187499999997, 149.22155688622757
56.17187499999997, 171.7365269461078
51.48437499999997, 171.7365269461078
51.24999999999997, 136.7664670658683
47.03124999999997, 136.7664670658683
47.03124999999997, 167.90419161676647
43.28124999999997, 167.90419161676647
43.51562499999997, 144.91017964071858
39.53124999999997, 144.91017964071858
39.53124999999997, 102.27544910179643
33.67187499999997, 102.27544910179643
33.67187499999997, 70.65868263473055
25.93749999999997, 70.65868263473055
25.93749999999997, 73.53293413173657
20.31249999999997, 73.53293413173657
20.31249999999997, 62.03592814371257
16.32812499999997, 62.03592814371257
16.32812499999997, 46.70658682634729
11.406249999999972, 46.70658682634729
11.406249999999972, 39.04191616766468
6.249999999999972, 39.04191616766468
6.249999999999972, 42.3952095808383
2.9687499999999716, 42.3952095808383
2.9687499999999716, 37.12574850299404
0.3906249999999716, 37.12574850299404
