139.35654358439587, 27.612456747404845
130.50884011944822, 24.08304498269896
120.44247997345593, 24.705882352941174
110.37967483528462, 26.366782006920413
100.32469071431956, 30.311418685121104
90.460255012561, 29.896193771626297
80.39105086031186, 29.68858131487889
70.3161586955491, 27.820069204152247
60.462388017253616, 30.51903114186851
50.4017158837749, 32.80276816608996
40.33108972839736, 32.17993079584775
30.261174574584032, 31.764705882352942
20.39958287908229, 32.17993079584775
10.327534720576352, 31.141868512110726
0.25122055268519716, 28.85813148788927
