129.7403905588242, 24.114832535885157
119.83471074380168, 24.688995215310996
109.78239967033723, 26.555023923444963
99.72493761589708, 30.574162679425825
89.67812092214008, 30.14354066985645
79.77450149950783, 29.85645933014353
69.73146219179964, 27.8468899521531
59.677090725944964, 30.574162679425825
49.76763352487356, 32.72727272727271
39.72081683111654, 32.296650717703336
29.674000137359513, 31.86602870813396
19.76900711980042, 32.15311004784688
9.7232206222385, 31.29186602870812
-0.3187884892744819, 28.851674641148314
