129.91243332341293, -47.79904306220095
119.9991987362927, -44.066985645933016
109.94448387170624, -41.19617224880382
99.88427462741238, -36.02870813397129
89.97481742634099, -33.8755980861244
79.918385568096, -30.287081339712913
69.84856115931413, -21.100478468899524
59.771868775898014, -9.043062200956939
49.83871706233836, 3.0143540669856392
39.76580206497107, 13.49282296650717
29.84982028799712, 18.373205741626784
19.788924246239816, 23.827751196172237
9.731805590531366, 27.70334928229664
-0.17421762322288714, 28.421052631578934
