320.0473466524768, -62.33552631578945
310.11724796826627, -63.32236842105263
300.1980335719814, -61.3486842105263
290.0003628095975, -60.11513157894737
280.0757062693498, -59.62171052631578
270.16646913699685, -54.93421052631578
260.2563249806501, -50.49342105263156
250.05230505030957, -50.98684210526315
240.141253869969, -46.79276315789474
229.96444465944268, -39.88486842105263
220.05702157507739, -34.703947368421055
210.14959849071204, -29.52302631578945
200.23582623839005, -26.069078947368425
190.30300648219813, -27.796052631578945
180.08175309597522, -32.97697368421052
170.12625773993804, -40.87171052631578
160.1970660797213, -41.61184210526315
149.9594862616098, -51.23355263157893
140.00217685758503, -59.62171052631578
129.82264657507733, -53.45394736842104
119.92338670665629, -46.05263157894737
109.99963719040244, -45.3125
100.09584220201236, -39.14473684210526
89.89817143962847, -37.911184210526315
79.71410603715162, -32.97697368421052
69.81303212074295, -26.069078947368425
59.93281975619186, -13.48684210526315
50.06349167956654, 2.0559210526315894
40.17239502708975, 11.67763157894737
29.989236648606777, 16.858552631578945
20.076371420278576, 20.559210526315795
9.891398993808025, 25.246710526315788
-0.02690837848308547, 27.467105263157897
